{
  "routes": [
    {
      "path": "/resources",
      "target": {
        "type": "service",
        "name": "sapui5",
        "entryPath": "/resources",
        "version": "1.38.39"
      },
      "description": "SAPUI5 Resources"
    },
    {
      "path": "/test-resources",
      "target": {
        "type": "service",
        "name": "sapui5",
        "entryPath": "/test-resources",
        "version": "1.38.39"
      },
      "description": "SAPUI5 Test Resources"
    },
    {
      "path": "/resources",
      "target": {
        "type": "service",
        "name": "sapui5",
        "entryPath": "/resources",
        "version": "1.38.39"
      },
      "description": "SAPUI5 Resources"
    },
    {
      "path": "/test-resources",
      "target": {
        "type": "service",
        "name": "sapui5",
        "entryPath": "/test-resources",
        "version": "1.38.39"
      },
      "description": "SAPUI5 Test Resources"
    },
    {
      "path": "/BAC",
      "target": {
        "type": "destination",
        "name": "BAC"
      },
      "description": "BAC"
    },
    {
      "path": "/services/userapi",
      "target": {
        "type": "service",
        "name": "userapi"
      }
    },
    {
      "path": "/sap/opu/odata",
      "target": {
        "type": "destination",
        "name": "DEST4OD_SRV_BED_TRKSP",
        "entryPath": "/sap/opu/odata"
      },
      "description": "Destination para aplicaciÃ³n de \"Track Solped\" - BED"
    },
    {
      "path": "/sap/bc/ui5_ui5",
      "target": {
        "type": "destination",
        "name": "DEST4OD_SRV_BED_TRKSP",
        "entryPath": "/sap/bc/ui5_ui5"
      },
      "description": "Destination para aplicaciÃ³n de \"Track Solped\" - BED"
    }
  ]
}