{
    "resources": [
        {
            "name": "Component-dbg.js",
            "isDebug": true
        },
        {
            "name": "Component-preload.js",
            "merged": true
        },
        {
            "name": "Component.js"
        },
        {
            "name": "controller/App-dbg.controller.js",
            "isDebug": true
        },
        {
            "name": "controller/App.controller.js"
        },
        {
            "name": "controller/BaseController-dbg.js",
            "isDebug": true
        },
        {
            "name": "controller/BaseController.js"
        },
        {
            "name": "controller/Delivered-dbg.controller.js",
            "isDebug": true
        },
        {
            "name": "controller/Delivered.controller.js"
        },
        {
            "name": "controller/Detail-dbg.controller.js",
            "isDebug": true
        },
        {
            "name": "controller/Detail.controller.js"
        },
        {
            "name": "controller/ErrorHandler-dbg.js",
            "isDebug": true
        },
        {
            "name": "controller/ErrorHandler.js"
        },
        {
            "name": "controller/Invoiced-dbg.controller.js",
            "isDebug": true
        },
        {
            "name": "controller/Invoiced.controller.js"
        },
        {
            "name": "controller/ListSelector-dbg.js",
            "isDebug": true
        },
        {
            "name": "controller/ListSelector.js"
        },
        {
            "name": "controller/Master-dbg.controller.js",
            "isDebug": true
        },
        {
            "name": "controller/Master.controller.js"
        },
        {
            "name": "controller/POAccAssignment-dbg.controller.js",
            "isDebug": true
        },
        {
            "name": "controller/POAccAssignment.controller.js"
        },
        {
            "name": "controller/POApprovers-dbg.controller.js",
            "isDebug": true
        },
        {
            "name": "controller/POApprovers.controller.js"
        },
        {
            "name": "controller/PRAccAssignment-dbg.controller.js",
            "isDebug": true
        },
        {
            "name": "controller/PRAccAssignment.controller.js"
        },
        {
            "name": "controller/PRApprovers-dbg.controller.js",
            "isDebug": true
        },
        {
            "name": "controller/PRApprovers.controller.js"
        },
        {
            "name": "controller/Paid-dbg.controller.js",
            "isDebug": true
        },
        {
            "name": "controller/Paid.controller.js"
        },
        {
            "name": "css/style-dbg.css",
            "isDebug": true
        },
        {
            "name": "css/style.css"
        },
        {
            "name": "di.code-validation.core_issues.json"
        },
        {
            "name": "extended_runnable_file.html"
        },
        {
            "name": "i18n/i18n.properties",
            "raw": "i18n/i18n.properties"
        },
        {
            "name": "localService/metadata.xml"
        },
        {
            "name": "localService/mockserver-dbg.js",
            "isDebug": true
        },
        {
            "name": "localService/mockserver.js"
        },
        {
            "name": "manifest.json"
        },
        {
            "name": "model/GroupSortState-dbg.js",
            "isDebug": true
        },
        {
            "name": "model/GroupSortState.js"
        },
        {
            "name": "model/formatter-dbg.js",
            "isDebug": true
        },
        {
            "name": "model/formatter.js"
        },
        {
            "name": "model/grouper-dbg.js",
            "isDebug": true
        },
        {
            "name": "model/grouper.js"
        },
        {
            "name": "model/models-dbg.js",
            "isDebug": true
        },
        {
            "name": "model/models.js"
        },
        {
            "name": "neo-app.json"
        },
        {
            "name": "test/flpSandbox.html"
        },
        {
            "name": "test/flpSandboxMockServer.html"
        },
        {
            "name": "test/integration/AllJourneys-dbg.js",
            "isDebug": true
        },
        {
            "name": "test/integration/AllJourneys.js"
        },
        {
            "name": "test/integration/BusyJourney-dbg.js",
            "isDebug": true
        },
        {
            "name": "test/integration/BusyJourney.js"
        },
        {
            "name": "test/integration/BusyJourneyPhone-dbg.js",
            "isDebug": true
        },
        {
            "name": "test/integration/BusyJourneyPhone.js"
        },
        {
            "name": "test/integration/FLPIntegrationJourney-dbg.js",
            "isDebug": true
        },
        {
            "name": "test/integration/FLPIntegrationJourney.js"
        },
        {
            "name": "test/integration/MasterJourney-dbg.js",
            "isDebug": true
        },
        {
            "name": "test/integration/MasterJourney.js"
        },
        {
            "name": "test/integration/NavigationJourney-dbg.js",
            "isDebug": true
        },
        {
            "name": "test/integration/NavigationJourney.js"
        },
        {
            "name": "test/integration/NavigationJourneyPhone-dbg.js",
            "isDebug": true
        },
        {
            "name": "test/integration/NavigationJourneyPhone.js"
        },
        {
            "name": "test/integration/NotFoundJourney-dbg.js",
            "isDebug": true
        },
        {
            "name": "test/integration/NotFoundJourney.js"
        },
        {
            "name": "test/integration/NotFoundJourneyPhone-dbg.js",
            "isDebug": true
        },
        {
            "name": "test/integration/NotFoundJourneyPhone.js"
        },
        {
            "name": "test/integration/PhoneJourneys-dbg.js",
            "isDebug": true
        },
        {
            "name": "test/integration/PhoneJourneys.js"
        },
        {
            "name": "test/integration/opaTests.qunit.html"
        },
        {
            "name": "test/integration/opaTestsPhone.qunit.html"
        },
        {
            "name": "test/integration/pages/App-dbg.js",
            "isDebug": true
        },
        {
            "name": "test/integration/pages/App.js"
        },
        {
            "name": "test/integration/pages/Browser-dbg.js",
            "isDebug": true
        },
        {
            "name": "test/integration/pages/Browser.js"
        },
        {
            "name": "test/integration/pages/Common-dbg.js",
            "isDebug": true
        },
        {
            "name": "test/integration/pages/Common.js"
        },
        {
            "name": "test/integration/pages/Detail-dbg.js",
            "isDebug": true
        },
        {
            "name": "test/integration/pages/Detail.js"
        },
        {
            "name": "test/integration/pages/Master-dbg.js",
            "isDebug": true
        },
        {
            "name": "test/integration/pages/Master.js"
        },
        {
            "name": "test/integration/pages/NotFound-dbg.js",
            "isDebug": true
        },
        {
            "name": "test/integration/pages/NotFound.js"
        },
        {
            "name": "test/testsuite.qunit.html"
        },
        {
            "name": "test/unit/allTests-dbg.js",
            "isDebug": true
        },
        {
            "name": "test/unit/allTests.js"
        },
        {
            "name": "test/unit/controller/App-dbg.controller.js",
            "isDebug": true
        },
        {
            "name": "test/unit/controller/App.controller.js"
        },
        {
            "name": "test/unit/controller/ListSelector-dbg.js",
            "isDebug": true
        },
        {
            "name": "test/unit/controller/ListSelector.js"
        },
        {
            "name": "test/unit/model/GroupSortState-dbg.js",
            "isDebug": true
        },
        {
            "name": "test/unit/model/GroupSortState.js"
        },
        {
            "name": "test/unit/model/formatter-dbg.js",
            "isDebug": true
        },
        {
            "name": "test/unit/model/formatter.js"
        },
        {
            "name": "test/unit/model/grouper-dbg.js",
            "isDebug": true
        },
        {
            "name": "test/unit/model/grouper.js"
        },
        {
            "name": "test/unit/model/models-dbg.js",
            "isDebug": true
        },
        {
            "name": "test/unit/model/models.js"
        },
        {
            "name": "test/unit/unitTests.qunit.html"
        },
        {
            "name": "test.html"
        },
        {
            "name": "tmp/Component-preload.js",
            "merged": true
        },
        {
            "name": "tmp/Component.js"
        },
        {
            "name": "tmp/controller/App.controller.js"
        },
        {
            "name": "tmp/controller/BaseController.js"
        },
        {
            "name": "tmp/controller/Delivered.controller.js"
        },
        {
            "name": "tmp/controller/Detail.controller.js"
        },
        {
            "name": "tmp/controller/ErrorHandler.js"
        },
        {
            "name": "tmp/controller/Invoiced.controller.js"
        },
        {
            "name": "tmp/controller/ListSelector.js"
        },
        {
            "name": "tmp/controller/Master.controller.js"
        },
        {
            "name": "tmp/controller/POAccAssignment.controller.js"
        },
        {
            "name": "tmp/controller/POApprovers.controller.js"
        },
        {
            "name": "tmp/controller/PRAccAssignment.controller.js"
        },
        {
            "name": "tmp/controller/PRApprovers.controller.js"
        },
        {
            "name": "tmp/controller/Paid.controller.js"
        },
        {
            "name": "tmp/css/style.css"
        },
        {
            "name": "tmp/extended_runnable_file.html"
        },
        {
            "name": "tmp/i18n/i18n.properties",
            "raw": "i18n/i18n.properties"
        },
        {
            "name": "tmp/localService/metadata.xml"
        },
        {
            "name": "tmp/localService/mockserver.js"
        },
        {
            "name": "tmp/manifest.json"
        },
        {
            "name": "tmp/model/GroupSortState.js"
        },
        {
            "name": "tmp/model/formatter.js"
        },
        {
            "name": "tmp/model/grouper.js"
        },
        {
            "name": "tmp/model/models.js"
        },
        {
            "name": "tmp/test/flpSandbox.html"
        },
        {
            "name": "tmp/test/flpSandboxMockServer.html"
        },
        {
            "name": "tmp/test/integration/AllJourneys.js"
        },
        {
            "name": "tmp/test/integration/BusyJourney.js"
        },
        {
            "name": "tmp/test/integration/BusyJourneyPhone.js"
        },
        {
            "name": "tmp/test/integration/FLPIntegrationJourney.js"
        },
        {
            "name": "tmp/test/integration/MasterJourney.js"
        },
        {
            "name": "tmp/test/integration/NavigationJourney.js"
        },
        {
            "name": "tmp/test/integration/NavigationJourneyPhone.js"
        },
        {
            "name": "tmp/test/integration/NotFoundJourney.js"
        },
        {
            "name": "tmp/test/integration/NotFoundJourneyPhone.js"
        },
        {
            "name": "tmp/test/integration/PhoneJourneys.js"
        },
        {
            "name": "tmp/test/integration/opaTests.qunit.html"
        },
        {
            "name": "tmp/test/integration/opaTestsPhone.qunit.html"
        },
        {
            "name": "tmp/test/integration/pages/App.js"
        },
        {
            "name": "tmp/test/integration/pages/Browser.js"
        },
        {
            "name": "tmp/test/integration/pages/Common.js"
        },
        {
            "name": "tmp/test/integration/pages/Detail.js"
        },
        {
            "name": "tmp/test/integration/pages/Master.js"
        },
        {
            "name": "tmp/test/integration/pages/NotFound.js"
        },
        {
            "name": "tmp/test/testsuite.qunit.html"
        },
        {
            "name": "tmp/test/unit/allTests.js"
        },
        {
            "name": "tmp/test/unit/controller/App.controller.js"
        },
        {
            "name": "tmp/test/unit/controller/ListSelector.js"
        },
        {
            "name": "tmp/test/unit/model/GroupSortState.js"
        },
        {
            "name": "tmp/test/unit/model/formatter.js"
        },
        {
            "name": "tmp/test/unit/model/grouper.js"
        },
        {
            "name": "tmp/test/unit/model/models.js"
        },
        {
            "name": "tmp/test/unit/unitTests.qunit.html"
        },
        {
            "name": "tmp/test.html"
        },
        {
            "name": "tmp/view/App.view.xml"
        },
        {
            "name": "tmp/view/BusyDialog.fragment.xml"
        },
        {
            "name": "tmp/view/Delivered.view.xml"
        },
        {
            "name": "tmp/view/Detail.view.xml"
        },
        {
            "name": "tmp/view/DetailNoObjectsAvailable.view.xml"
        },
        {
            "name": "tmp/view/DetailObjectNotFound.view.xml"
        },
        {
            "name": "tmp/view/Invoiced.view.xml"
        },
        {
            "name": "tmp/view/Master.view.xml"
        },
        {
            "name": "tmp/view/NotFound.view.xml"
        },
        {
            "name": "tmp/view/POAccAssignment.view.xml"
        },
        {
            "name": "tmp/view/POApprovers.fragment.xml"
        },
        {
            "name": "tmp/view/POApprovers.view.xml"
        },
        {
            "name": "tmp/view/PRAccAssignment.view.xml"
        },
        {
            "name": "tmp/view/PRApprovers.view.xml"
        },
        {
            "name": "tmp/view/Paid.view.xml"
        },
        {
            "name": "tmp/view/ViewSettingsDialog.fragment.xml"
        },
        {
            "name": "tmp/view/delivered.fragment.xml"
        },
        {
            "name": "tmp/view/invoiced.fragment.xml"
        },
        {
            "name": "tmp/view/paid.fragment.xml"
        },
        {
            "name": "tmp/view/poItems.fragment.xml"
        },
        {
            "name": "tmp/view/prApprovers.fragment.xml"
        },
        {
            "name": "tmp/view/prItems.fragment.xml"
        },
        {
            "name": "tmp/view/scanned.fragment.xml"
        },
        {
            "name": "tmp-dbg/Component.js"
        },
        {
            "name": "tmp-dbg/controller/App.controller.js"
        },
        {
            "name": "tmp-dbg/controller/BaseController.js"
        },
        {
            "name": "tmp-dbg/controller/Delivered.controller.js"
        },
        {
            "name": "tmp-dbg/controller/Detail.controller.js"
        },
        {
            "name": "tmp-dbg/controller/ErrorHandler.js"
        },
        {
            "name": "tmp-dbg/controller/Invoiced.controller.js"
        },
        {
            "name": "tmp-dbg/controller/ListSelector.js"
        },
        {
            "name": "tmp-dbg/controller/Master.controller.js"
        },
        {
            "name": "tmp-dbg/controller/POAccAssignment.controller.js"
        },
        {
            "name": "tmp-dbg/controller/POApprovers.controller.js"
        },
        {
            "name": "tmp-dbg/controller/PRAccAssignment.controller.js"
        },
        {
            "name": "tmp-dbg/controller/PRApprovers.controller.js"
        },
        {
            "name": "tmp-dbg/controller/Paid.controller.js"
        },
        {
            "name": "tmp-dbg/css/style.css"
        },
        {
            "name": "tmp-dbg/localService/mockserver.js"
        },
        {
            "name": "tmp-dbg/model/GroupSortState.js"
        },
        {
            "name": "tmp-dbg/model/formatter.js"
        },
        {
            "name": "tmp-dbg/model/grouper.js"
        },
        {
            "name": "tmp-dbg/model/models.js"
        },
        {
            "name": "tmp-dbg/test/integration/AllJourneys.js"
        },
        {
            "name": "tmp-dbg/test/integration/BusyJourney.js"
        },
        {
            "name": "tmp-dbg/test/integration/BusyJourneyPhone.js"
        },
        {
            "name": "tmp-dbg/test/integration/FLPIntegrationJourney.js"
        },
        {
            "name": "tmp-dbg/test/integration/MasterJourney.js"
        },
        {
            "name": "tmp-dbg/test/integration/NavigationJourney.js"
        },
        {
            "name": "tmp-dbg/test/integration/NavigationJourneyPhone.js"
        },
        {
            "name": "tmp-dbg/test/integration/NotFoundJourney.js"
        },
        {
            "name": "tmp-dbg/test/integration/NotFoundJourneyPhone.js"
        },
        {
            "name": "tmp-dbg/test/integration/PhoneJourneys.js"
        },
        {
            "name": "tmp-dbg/test/integration/pages/App.js"
        },
        {
            "name": "tmp-dbg/test/integration/pages/Browser.js"
        },
        {
            "name": "tmp-dbg/test/integration/pages/Common.js"
        },
        {
            "name": "tmp-dbg/test/integration/pages/Detail.js"
        },
        {
            "name": "tmp-dbg/test/integration/pages/Master.js"
        },
        {
            "name": "tmp-dbg/test/integration/pages/NotFound.js"
        },
        {
            "name": "tmp-dbg/test/unit/allTests.js"
        },
        {
            "name": "tmp-dbg/test/unit/controller/App.controller.js"
        },
        {
            "name": "tmp-dbg/test/unit/controller/ListSelector.js"
        },
        {
            "name": "tmp-dbg/test/unit/model/GroupSortState.js"
        },
        {
            "name": "tmp-dbg/test/unit/model/formatter.js"
        },
        {
            "name": "tmp-dbg/test/unit/model/grouper.js"
        },
        {
            "name": "tmp-dbg/test/unit/model/models.js"
        },
        {
            "name": "view/App.view.xml"
        },
        {
            "name": "view/BusyDialog.fragment.xml"
        },
        {
            "name": "view/Delivered.view.xml"
        },
        {
            "name": "view/Detail.view.xml"
        },
        {
            "name": "view/DetailNoObjectsAvailable.view.xml"
        },
        {
            "name": "view/DetailObjectNotFound.view.xml"
        },
        {
            "name": "view/Invoiced.view.xml"
        },
        {
            "name": "view/Master.view.xml"
        },
        {
            "name": "view/NotFound.view.xml"
        },
        {
            "name": "view/POAccAssignment.view.xml"
        },
        {
            "name": "view/POApprovers.fragment.xml"
        },
        {
            "name": "view/POApprovers.view.xml"
        },
        {
            "name": "view/PRAccAssignment.view.xml"
        },
        {
            "name": "view/PRApprovers.view.xml"
        },
        {
            "name": "view/Paid.view.xml"
        },
        {
            "name": "view/ViewSettingsDialog.fragment.xml"
        },
        {
            "name": "view/delivered.fragment.xml"
        },
        {
            "name": "view/invoiced.fragment.xml"
        },
        {
            "name": "view/paid.fragment.xml"
        },
        {
            "name": "view/poItems.fragment.xml"
        },
        {
            "name": "view/prApprovers.fragment.xml"
        },
        {
            "name": "view/prItems.fragment.xml"
        },
        {
            "name": "view/scanned.fragment.xml"
        }
    ]
}