{
  "Component-dbg.js": 1553723789585,
  "Component-preload.js": 1553723789645,
  "Component.js": 1553716574000,
  "controller/App-dbg.controller.js": 1553723789585,
  "controller/App.controller.js": 1553716574000,
  "controller/BaseController-dbg.js": 1553723789585,
  "controller/BaseController.js": 1553716574000,
  "controller/Delivered-dbg.controller.js": 1553723789585,
  "controller/Delivered.controller.js": 1553716574000,
  "controller/Detail-dbg.controller.js": 1553723789585,
  "controller/Detail.controller.js": 1553716574000,
  "controller/ErrorHandler-dbg.js": 1553723789585,
  "controller/ErrorHandler.js": 1553716574000,
  "controller/Invoiced-dbg.controller.js": 1553723789585,
  "controller/Invoiced.controller.js": 1553716574000,
  "controller/ListSelector-dbg.js": 1553723789585,
  "controller/ListSelector.js": 1553716574000,
  "controller/Master-dbg.controller.js": 1553723789585,
  "controller/Master.controller.js": 1553716574000,
  "controller/POAccAssignment-dbg.controller.js": 1553723789585,
  "controller/POAccAssignment.controller.js": 1553716574000,
  "controller/POApprovers-dbg.controller.js": 1553723789585,
  "controller/POApprovers.controller.js": 1553716574000,
  "controller/PRAccAssignment-dbg.controller.js": 1553723789585,
  "controller/PRAccAssignment.controller.js": 1553716574000,
  "controller/PRApprovers-dbg.controller.js": 1553723789585,
  "controller/PRApprovers.controller.js": 1553716574000,
  "controller/Paid-dbg.controller.js": 1553723789585,
  "controller/Paid.controller.js": 1553716574000,
  "css/style-dbg.css": 1553723789605,
  "css/style.css": 1553723788685,
  "di.code-validation.core_issues.json": 1553723788255,
  "extended_runnable_file.html": 1553716574000,
  "i18n/i18n.properties": 1553716574000,
  "localService/metadata.xml": 1553716574000,
  "localService/mockserver-dbg.js": 1553723789585,
  "localService/mockserver.js": 1553716574000,
  "manifest-bundle.zip": 1553723789865,
  "manifest.json": 1553723788635,
  "model/GroupSortState-dbg.js": 1553723789585,
  "model/GroupSortState.js": 1553716574000,
  "model/formatter-dbg.js": 1553723789585,
  "model/formatter.js": 1553716574000,
  "model/grouper-dbg.js": 1553723789585,
  "model/grouper.js": 1553716574000,
  "model/models-dbg.js": 1553723789585,
  "model/models.js": 1553716574000,
  "neo-app.json": 1553723789735,
  "resources.json": 1553723789745,
  "test/flpSandbox.html": 1553716574000,
  "test/flpSandboxMockServer.html": 1553716574000,
  "test/integration/AllJourneys-dbg.js": 1553723789585,
  "test/integration/AllJourneys.js": 1553716574000,
  "test/integration/BusyJourney-dbg.js": 1553723789585,
  "test/integration/BusyJourney.js": 1553716574000,
  "test/integration/BusyJourneyPhone-dbg.js": 1553723789585,
  "test/integration/BusyJourneyPhone.js": 1553716574000,
  "test/integration/FLPIntegrationJourney-dbg.js": 1553723789585,
  "test/integration/FLPIntegrationJourney.js": 1553716574000,
  "test/integration/MasterJourney-dbg.js": 1553723789585,
  "test/integration/MasterJourney.js": 1553716574000,
  "test/integration/NavigationJourney-dbg.js": 1553723789585,
  "test/integration/NavigationJourney.js": 1553716574000,
  "test/integration/NavigationJourneyPhone-dbg.js": 1553723789585,
  "test/integration/NavigationJourneyPhone.js": 1553716574000,
  "test/integration/NotFoundJourney-dbg.js": 1553723789585,
  "test/integration/NotFoundJourney.js": 1553716574000,
  "test/integration/NotFoundJourneyPhone-dbg.js": 1553723789585,
  "test/integration/NotFoundJourneyPhone.js": 1553716574000,
  "test/integration/PhoneJourneys-dbg.js": 1553723789605,
  "test/integration/PhoneJourneys.js": 1553716574000,
  "test/integration/opaTests.qunit.html": 1553716574000,
  "test/integration/opaTestsPhone.qunit.html": 1553716574000,
  "test/integration/pages/App-dbg.js": 1553723789585,
  "test/integration/pages/App.js": 1553716574000,
  "test/integration/pages/Browser-dbg.js": 1553723789585,
  "test/integration/pages/Browser.js": 1553716574000,
  "test/integration/pages/Common-dbg.js": 1553723789585,
  "test/integration/pages/Common.js": 1553716574000,
  "test/integration/pages/Detail-dbg.js": 1553723789585,
  "test/integration/pages/Detail.js": 1553716574000,
  "test/integration/pages/Master-dbg.js": 1553723789585,
  "test/integration/pages/Master.js": 1553716574000,
  "test/integration/pages/NotFound-dbg.js": 1553723789585,
  "test/integration/pages/NotFound.js": 1553716574000,
  "test/testsuite.qunit.html": 1553716574000,
  "test/unit/allTests-dbg.js": 1553723789605,
  "test/unit/allTests.js": 1553716574000,
  "test/unit/controller/App-dbg.controller.js": 1553723789605,
  "test/unit/controller/App.controller.js": 1553716574000,
  "test/unit/controller/ListSelector-dbg.js": 1553723789605,
  "test/unit/controller/ListSelector.js": 1553716574000,
  "test/unit/model/GroupSortState-dbg.js": 1553723789605,
  "test/unit/model/GroupSortState.js": 1553716574000,
  "test/unit/model/formatter-dbg.js": 1553723789605,
  "test/unit/model/formatter.js": 1553716574000,
  "test/unit/model/grouper-dbg.js": 1553723789605,
  "test/unit/model/grouper.js": 1553716574000,
  "test/unit/model/models-dbg.js": 1553723789605,
  "test/unit/model/models.js": 1553716574000,
  "test/unit/unitTests.qunit.html": 1553716574000,
  "test.html": 1553716574000,
  "view/App.view.xml": 1553716574000,
  "view/BusyDialog.fragment.xml": 1553716574000,
  "view/Delivered.view.xml": 1553716574000,
  "view/Detail.view.xml": 1553716574000,
  "view/DetailNoObjectsAvailable.view.xml": 1553716574000,
  "view/DetailObjectNotFound.view.xml": 1553716574000,
  "view/Invoiced.view.xml": 1553716574000,
  "view/Master.view.xml": 1553716574000,
  "view/NotFound.view.xml": 1553716574000,
  "view/POAccAssignment.view.xml": 1553716574000,
  "view/POApprovers.fragment.xml": 1553716574000,
  "view/POApprovers.view.xml": 1553716574000,
  "view/PRAccAssignment.view.xml": 1553716574000,
  "view/PRApprovers.view.xml": 1553716574000,
  "view/Paid.view.xml": 1553716574000,
  "view/ViewSettingsDialog.fragment.xml": 1553716574000,
  "view/delivered.fragment.xml": 1553716574000,
  "view/invoiced.fragment.xml": 1553716574000,
  "view/paid.fragment.xml": 1553716574000,
  "view/poItems.fragment.xml": 1553716574000,
  "view/prApprovers.fragment.xml": 1553716574000,
  "view/prItems.fragment.xml": 1553716574000,
  "view/scanned.fragment.xml": 1553716574000
}